<?xml version="1.0" encoding="UTF-8"?>
<svg width="177px" height="127px" viewBox="0 0 177 127" version="1.1" xmlns="http://www.w3.org/2000/svg" xmlns:xlink="http://www.w3.org/1999/xlink">
    <!-- Generator: Sketch 47 (45396) - http://www.bohemiancoding.com/sketch -->
    <title>Group 2</title>
    <desc>Created with Sketch.</desc>
    <defs></defs>
    <g id="Home" stroke="none" stroke-width="1" fill="none" fill-rule="evenodd">
        <g id="inscricao-copy" transform="translate(-816.000000, -1297.000000)" fill="#F2361F">
            <g id="steps" transform="translate(425.000000, 1232.000000)">
                <g id="faça" transform="translate(385.000000, 59.000000)">
                    <g id="Group-2">
                        <path d="M61.4059414,38.399414 L29.2347085,38.399414 L29.2347085,37.5637976 C29.2347085,35.7178047 27.7382356,34.2213319 25.8922428,34.2213319 C24.0462499,34.2213319 22.549777,35.7178047 22.549777,37.5637976 L22.549777,38.399414 C17.8463151,38.4705263 13.8857092,41.9360565 13.1908729,46.5884551 L10.0155304,64.4706469 L10.0155304,64.7213319 C10.0155304,70.0285613 14.31789,74.3309209 19.6251195,74.3309209 L22.549777,74.3309209 L22.549777,92.7980442 C20.0277266,93.2694868 18.0073013,95.1595621 17.3689551,97.6446195 L15.8648455,103.661058 C15.3753839,105.636381 15.8243531,107.727046 17.0816576,109.327252 C18.3389621,110.927457 20.2640478,111.858317 22.2990921,111.850099 L25.3073113,111.850099 C27.3423555,111.858317 29.2674413,110.927457 30.5247457,109.327252 C31.7820502,107.727046 32.2310194,105.636381 31.7415578,103.661058 L30.2374482,97.6446195 C29.5991021,95.1595621 27.5786767,93.2694868 25.0566263,92.7980442 L25.0566263,74.3309209 L61.4059414,74.3309209 C66.7131709,74.3309209 71.0155304,70.0285613 71.0155304,64.7213319 L71.0155304,48.0090031 C71.0155304,42.7017736 66.7131709,38.399414 61.4059414,38.399414 Z M18.2881332,104.329551 L19.7922428,98.3131127 C20.1367141,96.9230771 21.1823897,95.8140272 22.549777,95.3884551 L22.549777,101.989825 L19.2073113,108.006263 L19.040188,107.83914 C18.2627881,106.847338 17.9853897,105.552812 18.2881332,104.329551 L18.2881332,104.329551 Z M22.2990921,109.426811 L21.379914,109.426811 L23.8032017,104.914483 L26.2264893,109.34325 L22.2990921,109.34325 L22.2990921,109.426811 Z M27.8141606,98.3131127 L29.3182702,104.329551 C29.6210136,105.552812 29.3436152,106.847338 28.5662154,107.83914 L28.3990921,108.006263 L25.0566263,101.989825 L25.0566263,95.3884551 C26.4240136,95.8140272 27.4696892,96.9230771 27.8141606,98.3131127 L27.8141606,98.3131127 Z M68.5086811,48.0090031 L68.5086811,55.1117428 L66.8374482,55.1117428 L66.8374482,48.8446195 C66.8374482,45.3833829 64.0315616,42.5774962 60.570325,42.5774962 L37.5908729,42.5774962 L37.5908729,40.9062634 L61.4059414,40.9062634 C65.3286762,40.9062634 68.5086811,44.0862683 68.5086811,48.0090031 Z M44.6936126,55.1117428 C40.7708778,55.1117428 37.5908729,51.9317379 37.5908729,48.0090031 L37.5908729,45.0843456 L60.570325,45.0843456 C62.6470669,45.0843456 64.3305989,46.7678776 64.3305989,48.8446195 L64.3305989,55.1117428 L44.6936126,55.1117428 L44.6936126,55.1117428 Z M25.8922428,36.7281812 C26.353741,36.7281812 26.7278592,37.1022994 26.7278592,37.5637976 L26.7278592,38.399414 L25.0566263,38.399414 L25.0566263,37.5637976 C25.0566263,37.1022994 25.4307445,36.7281812 25.8922428,36.7281812 Z M61.4059414,71.8240716 L19.6251195,71.8240716 C17.9436289,71.8285697 16.3150734,71.2363678 15.0292291,70.1528387 L23.8032017,70.1528387 C24.495449,70.1528387 25.0566263,69.5916614 25.0566263,68.899414 C25.0566263,68.2071667 24.495449,67.6459894 23.8032017,67.6459894 L13.1908729,67.6459894 C12.9548918,67.1119324 12.7864676,66.5505184 12.689503,65.9747565 L23.8032017,65.9747565 C24.495449,65.9747565 25.0566263,65.4135792 25.0566263,64.7213319 C25.0566263,64.0290845 24.495449,63.4679072 23.8032017,63.4679072 L12.7730647,63.4679072 L13.1073113,61.7966743 L23.8032017,61.7966743 C24.495449,61.7966743 25.0566263,61.235497 25.0566263,60.5432497 C25.0566263,59.8510023 24.495449,59.289825 23.8032017,59.289825 L13.5251195,59.289825 L15.6977222,47.0062634 C16.1961593,43.5109895 19.1862714,40.9124397 22.7169003,40.9062634 L35.0840236,40.9062634 L35.0840236,48.0090031 C35.0840236,53.3162326 39.3863831,57.6185921 44.6936126,57.6185921 L68.5086811,57.6185921 L68.5086811,64.7213319 C68.5086811,68.6440667 65.3286762,71.8240716 61.4059414,71.8240716 Z" id="Combined-Shape" fill-rule="nonzero" transform="translate(40.515530, 73.035742) rotate(-17.000000) translate(-40.515530, -73.035742) "></path>
                        <path d="M114.311923,129.274837 L74.6374184,129.274837 C69.3581497,129.274837 64.2388588,126.875169 60.8793241,122.875723 L128.070017,122.875723 C124.710482,126.875169 119.591191,129.274837 114.311923,129.274837 L114.311923,129.274837 Z M67.9183491,110.077496 C69.038194,110.397452 70.1580389,110.717407 71.2778837,110.717407 C73.3575957,110.717407 75.5972854,110.077496 77.1970638,108.797673 C79.2767757,107.037917 82.9562661,107.037917 85.035978,108.797673 C88.3955126,111.357319 93.5148035,111.357319 96.8743382,108.797673 C98.9540501,107.037917 102.63354,107.037917 104.713252,108.797673 C108.072787,111.357319 113.192078,111.357319 116.551613,108.797673 C118.471347,107.197895 121.670903,107.197895 123.910593,108.477718 L123.910593,119.676166 C124.230549,119.516189 67.9183491,119.676166 67.9183491,119.676166 L67.9183491,110.077496 Z M71.1179059,95.1995568 L120.871014,95.1995568 C122.63077,95.1995568 124.070571,96.6393574 124.070571,98.3991136 L124.070571,104.798227 C121.030992,103.678382 117.351502,104.158316 114.791856,106.238028 C112.712144,107.997784 109.032654,107.997784 106.952942,106.238028 C103.593407,103.678382 98.4741166,103.678382 95.1145819,106.238028 C93.03487,107.997784 89.3553797,107.997784 87.2756678,106.238028 C83.9161331,103.678382 78.7968422,103.678382 75.4373076,106.238028 C73.5175735,107.837806 70.3180167,107.837806 68.0783269,106.557983 L68.0783269,98.3991136 L67.9183491,98.3991136 C67.9183491,96.6393574 69.3581497,95.1995568 71.1179059,95.1995568 L71.1179059,95.1995568 Z M132.709374,120.476056 C132.389419,119.996122 131.909485,119.676166 131.269574,119.676166 L127.270128,119.676166 L127.270128,98.3991136 C127.270128,94.8796011 124.390527,92 120.871014,92 L113.196877,92 L102.953496,92 L99.7539393,92 L92.3949586,92 L89.1954018,92 L71.1179059,92 C67.5983934,92 64.7187923,94.8796011 64.7187923,98.3991136 L64.7187923,119.676166 L57.6797673,119.676166 C57.039856,119.676166 56.5599224,119.996122 56.2399668,120.476056 C55.9200111,120.955989 55.9200111,121.5959 56.2399668,122.075834 C60.0794349,128.474948 67.1184599,132.474394 74.4774405,132.474394 L114.151945,132.474394 C121.670903,132.474394 128.549951,128.474948 132.389419,122.075834 C132.869352,121.5959 132.869352,120.955989 132.709374,120.476056 L132.709374,120.476056 Z" id="Page-1"></path>
                        <path d="M128.905135,15.1559456 L172.273274,15.1559456 C173.081376,15.1559456 173.754794,14.4825273 173.754794,13.5397416 L173.754794,13.2703743 C173.754794,12.4622723 173.081376,11.6541704 172.273274,11.6541704 L156.380602,11.6541704 L156.380602,7.20960955 C156.380602,6.40150759 155.707184,5.59340562 154.899082,5.59340562 L146.279327,5.59340562 C145.471225,5.59340562 144.797807,6.26682392 144.797807,7.20960955 L144.797807,11.6541704 L128.905135,11.6541704 C128.097033,11.6541704 127.423615,12.3275887 127.423615,13.2703743 L127.423615,13.5397416 C127.423615,14.4825273 128.097033,15.1559456 128.905135,15.1559456 Z M147.895531,8.82581348 L153.417561,8.82581348 L153.417561,11.788854 L147.895531,11.788854 L147.895531,8.82581348 Z M174.832264,16.2334148 L172.13859,16.2334148 L165.539091,16.2334148 L129.039819,16.2334148 L130.117288,25.6612711 L124.864625,25.6612711 C124.191207,25.6612711 123.517789,25.9306384 123.113738,26.4693731 C122.709687,27.0081077 122.440319,27.681526 122.575003,28.3549443 L125.268676,44.786351 C125.40336,45.8638203 126.346146,46.8066059 127.558299,46.8066059 L132.541594,46.8066059 L133.753747,58.1200334 C133.888431,59.7362374 135.369951,61.083074 136.986155,61.083074 L164.192254,61.083074 C165.943142,61.083074 167.289979,59.870921 167.424662,58.1200334 L171.195805,23.6410162 L175.775049,19.0617717 C176.987202,17.9843024 176.313784,16.2334148 174.832264,16.2334148 Z M128.097033,43.574198 L125.807411,28.7589953 L130.521339,28.7589953 L132.137543,43.574198 L128.097033,43.574198 Z M169.17555,21.351394 C168.636815,21.8901286 168.367448,22.5635469 168.232764,23.2369652 L167.424662,30.7792502 L160.690479,30.7792502 C159.882377,30.7792502 159.208959,31.4526685 159.208959,32.3954542 C159.208959,33.3382398 159.882377,34.0116581 160.690479,34.0116581 L167.020611,34.0116581 L166.751244,36.9746987 L160.690479,36.9746987 C159.882377,36.9746987 159.208959,37.648117 159.208959,38.5909026 C159.208959,39.3990046 159.882377,40.2071065 160.690479,40.2071065 L166.347193,40.2071065 L166.077826,43.1701471 L160.690479,43.1701471 C159.882377,43.1701471 159.208959,43.8435654 159.208959,44.786351 C159.208959,45.594453 159.882377,46.4025549 160.690479,46.4025549 L165.673775,46.4025549 L165.404407,49.3655955 L160.690479,49.3655955 C159.882377,49.3655955 159.208959,50.0390138 159.208959,50.9817994 C159.208959,51.7899014 159.882377,52.5980033 160.690479,52.5980033 L165.000356,52.5980033 L164.461622,57.7159825 C164.461622,57.7159825 164.326938,57.8506661 164.192254,57.8506661 L136.986155,57.8506661 C136.851471,57.8506661 136.716788,57.7159825 136.716788,57.7159825 L132.40691,19.3311391 L165.404407,19.3311391 L171.061121,19.3311391 L169.17555,21.351394 Z M169.310233,64.9889002 C169.040866,63.2380126 167.69403,62.0258596 166.077826,62.0258596 L135.235267,62.0258596 C133.619063,62.0258596 132.137543,63.2380126 132.002859,64.9889002 L129.578553,82.3630924 C129.309186,84.518031 130.790706,86.4036023 132.810961,86.4036023 L168.367448,86.4036023 C170.387703,86.4036023 171.869223,84.518031 171.599856,82.4977761 L169.310233,64.9889002 Z M150.589205,79.1306846 C148.030215,79.1306846 145.875276,76.975746 145.875276,74.2820728 C145.875276,71.5883996 148.030215,69.433461 150.589205,69.433461 C153.148194,69.433461 155.303133,71.5883996 155.303133,74.2820728 C155.303133,76.975746 153.282878,79.1306846 150.589205,79.1306846 Z" id="Shape" fill-rule="nonzero" transform="translate(149.470660, 45.998504) rotate(-345.000000) translate(-149.470660, -45.998504) "></path>
                    </g>
                </g>
            </g>
        </g>
    </g>
</svg>