<?xml version="1.0" encoding="UTF-8"?>
<svg width="105px" height="65px" viewBox="0 0 105 65" version="1.1" xmlns="http://www.w3.org/2000/svg" xmlns:xlink="http://www.w3.org/1999/xlink">
    <!-- Generator: Sketch 47 (45396) - http://www.bohemiancoding.com/sketch -->
    <title>Group 6</title>
    <desc>Created with Sketch.</desc>
    <defs></defs>
    <g id="Orientação" stroke="none" stroke-width="1" fill="none" fill-rule="evenodd">
        <g id="inscricao-copy" transform="translate(-1119.000000, -756.000000)" fill="#F2361F">
            <g id="Group-6" transform="translate(1110.000000, 759.000000)">
                <g id="noun_1150138_cc" transform="translate(49.000000, 4.000000)">
                    <g id="Group">
                        <g id="cadastro-3">
                            <g id="Group">
                                <path d="M60.7450313,0.00486166571 C59.8669839,0.0505793128 59.0123366,0.449278136 58.4144734,1.09232755 C51.2763103,8.54048967 35.437726,25.4630473 27.1331892,34.1864657 L18.0032892,26.1475155 C16.6598418,24.9639061 14.3576103,25.1060403 13.1709155,26.4459085 C11.9841524,27.7857904 12.1268103,30.0817033 13.4703945,31.2651763 L25.1019734,41.5004704 C26.4152471,42.6550798 28.6448155,42.5549104 29.8486839,41.2872351 C37.5007576,33.3030233 55.8223418,13.6854991 63.3749997,5.80486167 C64.3365208,4.83039343 64.6186208,3.25142872 64.053805,2.0057252 C63.4889208,0.760021666 62.1137945,-0.0715618637 60.7450313,0.00486166571 L60.7450313,0.00486166571 Z M0,7.5533979 L0,53.9534115 C0.000205263158,55.7397433 1.62985789,57.3649715 3.42105263,57.3651763 L51.3157892,57.3651763 C53.1069839,57.3649715 54.7366366,55.7397433 54.7368418,53.9534115 L54.7368418,30.0710586 C54.7621576,28.2685551 53.1233366,26.6106967 51.3157892,26.6106967 C49.5082418,26.6106967 47.8691471,28.2685551 47.8947366,30.0710586 L47.8947366,50.5416468 L6.84210499,50.5416468 L6.84210499,10.9651626 L41.7368418,10.9651626 C43.5442524,10.9904097 45.2066103,9.3560379 45.2066103,7.5533979 C45.2066103,5.75075108 43.5442524,4.11610637 41.7368418,4.14162637 L3.42105263,4.14162637 C1.55945263,4.17710872 0.0382473684,6.11540049 0,7.5533979 Z" id="Shape" fill-rule="nonzero"></path>
                            </g>
                        </g>
                    </g>
                </g>
                <text id="3" font-family="AmaticSC-Regular, Amatic SC" font-size="55" font-weight="normal" line-spacing="39" letter-spacing="4.21000004">
                    <tspan x="0" y="56">3</tspan>
                </text>
            </g>
        </g>
    </g>
</svg>