<?xml version="1.0" encoding="UTF-8"?>
<svg width="265px" height="116px" viewBox="0 0 265 116" version="1.1" xmlns="http://www.w3.org/2000/svg" xmlns:xlink="http://www.w3.org/1999/xlink">
    <!-- Generator: Sketch 47 (45396) - http://www.bohemiancoding.com/sketch -->
    <title>pattern-1</title>
    <desc>Created with Sketch.</desc>
    <defs></defs>
    <g id="Home" stroke="none" stroke-width="1" fill="none" fill-rule="evenodd">
        <g id="Guia-" transform="translate(-893.000000, -739.000000)">
            <g id="pattern-1" transform="translate(879.000000, 724.000000)">
                <g id="pattern" transform="translate(14.000000, 16.000000)">
                    <g id="noun_889070_cc" transform="translate(3.000000, 0.000000)" stroke-width="2" stroke="#000000">
                        <g id="Group">
                            <rect id="Rectangle-path" x="9" y="21" width="28" height="13"></rect>
                            <rect id="Rectangle-path" x="14" y="12" width="18" height="9"></rect>
                            <rect id="Rectangle-path" x="4" y="34" width="38" height="12"></rect>
                            <path d="M46,46 L0,46" id="Shape"></path>
                            <path d="M26.5,12 C29.5,9.7 31,6.7 31,4.8 C31,2.3 29.1,0 26.7,0 C25.1,0 23.7,0.9 23,2.3 C22.3,0.9 20.9,0 19.3,0 C16.9,0 15,2.3 15,4.8 C15,6.7 16.5,9.7 19.5,12" id="Shape"></path>
                        </g>
                    </g>
                    <g id="noun_919714_cc" transform="translate(69.000000, 66.000000)" fill-rule="nonzero" fill="#000000">
                        <path d="M0,44.7 C0,45.41812 0.592411765,46 1.32352941,46 L43.6764706,46 C44.4075882,46 45,45.41812 45,44.7 L45,34.3 C45,33.58188 44.4075882,33 43.6764706,33 L39.7058824,33 L39.7058824,23.9 C39.7058824,23.18188 39.1134706,22.6 38.3823529,22.6 L34.4117647,22.6 L34.4117647,13.5 C34.4117647,12.78188 33.8193529,12.2 33.0882353,12.2 L31.7647059,12.2 L31.7647059,8.3 C31.7647059,7.58188 31.1722941,7 30.4411765,7 C29.7100588,7 29.1176471,7.58188 29.1176471,8.3 L29.1176471,12.2 L23.8235294,12.2 L23.8235294,8.3 C23.8235294,7.58188 23.2311176,7 22.5,7 C21.7688824,7 21.1764706,7.58188 21.1764706,8.3 L21.1764706,12.2 L15.8823529,12.2 L15.8823529,8.3 C15.8823529,7.58188 15.2899412,7 14.5588235,7 C13.8277059,7 13.2352941,7.58188 13.2352941,8.3 L13.2352941,12.2 L11.9117647,12.2 C11.1806471,12.2 10.5882353,12.78188 10.5882353,13.5 L10.5882353,22.6 L6.61764706,22.6 C5.88652941,22.6 5.29411765,23.18188 5.29411765,23.9 L5.29411765,33 L1.32352941,33 C0.592411765,33 0,33.58188 0,34.3 L0,44.7 Z M13.2352941,14.8 L31.7647059,14.8 L31.7647059,16.28928 C30.7090588,16.60544 30.033,17.26168 29.5046471,17.78064 C28.8555882,18.41816 28.5368824,18.7 27.7930588,18.7 C27.0487059,18.7 26.73,18.41816 26.0809412,17.78064 C25.3582941,17.07136 24.3693529,16.1 22.4973529,16.1 C20.6258824,16.1 19.6374706,17.07136 18.9153529,17.78064 C18.2668235,18.41816 17.9486471,18.7 17.2053529,18.7 C16.4615294,18.7 16.1433529,18.41816 15.4948235,17.78064 C14.9664706,17.26168 14.2909412,16.60544 13.2352941,16.28928 L13.2352941,14.8 Z M13.2352941,19.25172 C13.3544118,19.35832 13.4793529,19.47844 13.6222941,19.61884 C14.3449412,20.32864 15.3338824,21.3 17.2053529,21.3 C19.0768235,21.3 20.0652353,20.32864 20.7873529,19.61936 C21.4358824,18.98184 21.7540588,18.7 22.4973529,18.7 C23.2417059,18.7 23.5604118,18.98184 24.2094706,19.61936 C24.9315882,20.32864 25.9205294,21.3 27.7930588,21.3 C29.6650588,21.3 30.654,20.32864 31.3766471,19.61988 C31.5201176,19.47896 31.6455882,19.35832 31.7652353,19.2512 L31.7652353,22.6 L13.2358235,22.6 L13.2358235,19.25172 L13.2352941,19.25172 Z M7.94117647,25.2 L11.9117647,25.2 L33.0882353,25.2 L37.0588235,25.2 L37.0588235,26.68928 C36.0026471,27.00544 35.3271176,27.66168 34.7982353,28.18012 C34.1486471,28.81816 33.8304706,29.1 33.0861176,29.1 C32.3412353,29.1 32.0230588,28.81816 31.3734706,28.18012 C30.6508235,27.47136 29.6613529,26.5 27.7893529,26.5 C25.9178824,26.5 24.9289412,27.47136 24.2068235,28.18064 C23.5582941,28.81816 23.2401176,29.1 22.4962941,29.1 C21.7519412,29.1 21.4337647,28.81816 20.7847059,28.18064 C20.0625882,27.47136 19.0736471,26.5 17.2016471,26.5 C15.3301765,26.5 14.3412353,27.47136 13.6191176,28.18064 C12.9705882,28.81816 12.6524118,29.1 11.9091176,29.1 C11.1663529,29.1 10.8481765,28.81816 10.1996471,28.18064 C9.67182353,27.66168 8.99629412,27.00596 7.94117647,26.68928 L7.94117647,25.2 Z M7.94117647,29.65276 C8.05976471,29.75936 8.18470588,29.87948 8.32711765,30.01936 C9.04923529,30.72864 10.0376471,31.7 11.9091176,31.7 C13.7805882,31.7 14.7695294,30.72864 15.4916471,30.01936 C16.1401765,29.38184 16.4583529,29.1 17.2016471,29.1 C17.946,29.1 18.2641765,29.38184 18.9132353,30.01936 C19.6353529,30.72864 20.6248235,31.7 22.4962941,31.7 C24.3677647,31.7 25.3567059,30.72864 26.0788235,30.01936 C26.7273529,29.38184 27.0455294,29.1 27.7893529,29.1 C28.5342353,29.1 28.8524118,29.38184 29.502,30.01988 C30.2241176,30.72864 31.2135882,31.7 33.0861176,31.7 C34.9581176,31.7 35.9475882,30.72864 36.6702353,30.01988 C36.8137059,29.87896 36.9397059,29.7578 37.0593529,29.65068 L37.0593529,33 L7.94170588,33 L7.94170588,29.65276 L7.94117647,29.65276 Z M2.64705882,35.6 L6.61764706,35.6 L38.3823529,35.6 L42.3529412,35.6 L42.3529412,37.08928 C41.2967647,37.40544 40.6207059,38.06168 40.0923529,38.58012 C39.4427647,39.21816 39.1240588,39.5 38.3797059,39.5 C37.6348235,39.5 37.3161176,39.21816 36.6665294,38.58012 C35.9444118,37.87136 34.9544118,36.9 33.0824118,36.9 C31.2104118,36.9 30.222,37.87136 29.4993529,38.58064 C28.8508235,39.21816 28.5326471,39.5 27.7888235,39.5 C27.0444706,39.5 26.7262941,39.21816 26.0772353,38.58064 C25.3551176,37.87136 24.3656471,36.9 22.4936471,36.9 C20.6216471,36.9 19.6332353,37.87136 18.9105882,38.58064 C18.2620588,39.21816 17.9444118,39.5 17.2005882,39.5 C16.4572941,39.5 16.1391176,39.21816 15.4905882,38.58064 C14.7684706,37.87136 13.7800588,36.9 11.9085882,36.9 C10.0371176,36.9 9.04870588,37.87136 8.32658824,38.58064 C7.67805882,39.21816 7.35988235,39.5 6.61711765,39.5 C5.87329412,39.5 5.55511765,39.21816 4.90658824,38.58064 C4.37823529,38.06168 3.70270588,37.40544 2.64758824,37.08928 L2.64758824,35.6 L2.64705882,35.6 Z M2.64705882,40.05172 C2.76617647,40.15832 2.89111765,40.27844 3.03405882,40.41884 C3.75617647,41.12864 4.74511765,42.1 6.61711765,42.1 C8.48858824,42.1 9.477,41.12864 10.1991176,40.41936 C10.8471176,39.78184 11.1652941,39.5 11.9085882,39.5 C12.6518824,39.5 12.9695294,39.78184 13.6180588,40.41936 C14.3401765,41.12864 15.3291176,42.1 17.2005882,42.1 C19.0720588,42.1 20.061,41.12864 20.7831176,40.41936 C21.4316471,39.78184 21.7498235,39.5 22.4936471,39.5 C23.238,39.5 23.5561765,39.78184 24.2052353,40.41936 C24.9278824,41.12864 25.9173529,42.1 27.7888235,42.1 C29.6602941,42.1 30.6492353,41.12864 31.3713529,40.41936 C32.0204118,39.78184 32.3385882,39.5 33.0824118,39.5 C33.8272941,39.5 34.146,39.78184 34.7955882,40.41988 C35.5177059,41.12864 36.5071765,42.1 38.3797059,42.1 C40.2517059,42.1 41.2411765,41.12864 41.9638235,40.41988 C42.1078235,40.27844 42.2338235,40.1578 42.3534706,40.05068 L42.3534706,43.4 L2.64758824,43.4 L2.64758824,40.05172 L2.64705882,40.05172 Z" id="Shape"></path>
                        <path d="M15.4997001,0 C15.0070804,0 14.545662,0.2015 14.2654508,0.5395 C13.0000002,2.067 13.0000002,2.7065 13.0000002,2.9165 C12.9994002,4.0655 14.121445,5 15.4997001,5 C16.8779552,5 18,4.0655 18,2.9165 C18,2.7065 18,2.067 16.7345494,0.5395 C16.4537382,0.2015 15.9923198,0 15.4997001,0 Z" id="Shape"></path>
                        <path d="M23.4997001,0 C23.0070804,0 22.545662,0.2015 22.2654508,0.5395 C21.0000002,2.067 21.0000002,2.7065 21.0000002,2.9165 C20.9994002,4.0655 22.121445,5 23.4997001,5 C24.8779552,5 26,4.0655 26,2.9165 C26,2.7065 26,2.067 24.7345494,0.5395 C24.4537382,0.2015 23.9923198,0 23.4997001,0 Z" id="Shape"></path>
                        <path d="M31.4997001,0 C31.0070804,0 30.545662,0.2015 30.2654508,0.5395 C29.0000002,2.067 29.0000002,2.7065 29.0000002,2.9165 C28.9994002,4.0655 30.121445,5 31.4997001,5 C32.8779552,5 34,4.0655 34,2.9165 C34,2.7065 34,2.067 32.7345494,0.5395 C32.4537382,0.2015 31.9923198,0 31.4997001,0 Z" id="Shape"></path>
                    </g>
                    <g id="noun_994907_cc" transform="translate(137.000000, 4.000000)" fill-rule="nonzero" fill="#000000">
                        <path d="M40.3333333,27.5916667 L39.4166667,27.5916667 L39.4166667,17.6 C39.4166667,15.5833333 37.7666667,13.9333333 35.75,13.9333333 L29.425,13.9333333 C32.0833333,12.65 35.2916667,10.6333333 36.1166667,8.25 C36.4833333,7.15 36.4833333,5.86666667 35.9333333,4.76666667 C35.3833333,3.66666667 34.4666667,2.84166667 33.3666667,2.475 C32.175,2.01666667 30.8916667,2.10833333 29.7916667,2.65833333 C29.3333333,1.55833333 28.4166667,0.733333333 27.225,0.275 C26.675,0.0916666667 26.125,0 25.6666667,0 C24.2,0 22.9166667,0.733333333 22,1.83333333 C21.175,0.733333333 19.8,0 18.3333333,0 C17.7833333,0 17.2333333,0.0916666667 16.775,0.275 C15.5833333,0.733333333 14.6666667,1.55833333 14.2083333,2.65833333 C13.1083333,2.10833333 11.825,2.10833333 10.6333333,2.475 C9.53333333,2.93333333 8.525,3.75833333 8.06666667,4.76666667 C7.51666667,5.95833333 7.425,7.15 7.88333333,8.34166667 C8.70833333,10.725 12.0083333,12.7416667 14.575,14.025 L8.25,14.025 C6.23333333,14.025 4.58333333,15.675 4.58333333,17.6916667 L4.58333333,27.6833333 L3.66666667,27.6833333 C1.65,27.6833333 0,29.3333333 0,31.35 L0,43.0833333 C0,43.6333333 0.366666667,44 0.916666667,44 L43.0833333,44 C43.6333333,44 44,43.6333333 44,43.0833333 L44,31.2583333 C44,29.2416667 42.35,27.5916667 40.3333333,27.5916667 Z M23.1,3.575 C23.4666667,2.56666667 24.475,1.83333333 25.6666667,1.83333333 C26.0333333,1.83333333 26.3083333,1.925 26.675,2.01666667 C27.6833333,2.38333333 28.325,3.20833333 28.5083333,4.21666667 C28.5083333,4.58333333 28.7833333,4.85833333 29.15,4.95 C29.5166667,5.04166667 29.8833333,4.95 30.0666667,4.76666667 C30.8,4.125 31.9,3.85 32.9083333,4.21666667 C33.6416667,4.49166667 34.1916667,4.95 34.4666667,5.59166667 C34.7416667,6.23333333 34.8333333,6.96666667 34.5583333,7.60833333 C33.6416667,9.99166667 28.6,12.375 26.0333333,13.3833333 C25.1166667,11.7333333 23.0083333,7.60833333 23.0083333,4.675 C22.9166667,4.30833333 23.0083333,3.85 23.1,3.575 Z M22,9.25833333 C22.6416667,11.0916667 23.4666667,12.8333333 24.1083333,13.9333333 L19.9833333,13.9333333 C20.5333333,12.8333333 21.3583333,11.0916667 22,9.25833333 Z M9.625,7.7 C9.35,7.05833333 9.44166667,6.325 9.71666667,5.68333333 C9.99166667,5.04166667 10.5416667,4.49166667 11.275,4.30833333 C11.55,4.21666667 11.9166667,4.125 12.2833333,4.125 C12.925,4.125 13.6583333,4.4 14.1166667,4.85833333 C14.3916667,5.13333333 14.7583333,5.13333333 15.0333333,5.04166667 C15.3083333,4.85833333 15.5833333,4.58333333 15.5833333,4.21666667 C15.675,3.20833333 16.4083333,2.38333333 17.4166667,2.01666667 C18.7916667,1.55833333 20.4416667,2.2 20.9,3.575 C20.9916667,3.85 21.0833333,4.30833333 21.0833333,4.76666667 C21.0833333,7.60833333 18.975,11.825 18.0583333,13.475 C15.4916667,12.4666667 10.45,10.0833333 9.625,7.7 Z M6.41666667,17.6 C6.41666667,16.5916667 7.24166667,15.7666667 8.25,15.7666667 L35.75,15.7666667 C36.7583333,15.7666667 37.5833333,16.5916667 37.5833333,17.6 L37.5833333,21.2666667 C36.6666667,22 35.2916667,21.9083333 34.4666667,21.0833333 C32.8166667,19.4333333 30.0666667,19.4333333 28.4166667,21.0833333 C27.5,22 25.9416667,22 25.025,21.0833333 C24.2,20.2583333 23.1916667,19.8 22,19.8 C20.8083333,19.8 19.8,20.2583333 18.975,21.0833333 C18.0583333,22 16.5,22 15.5833333,21.0833333 C13.9333333,19.4333333 11.275,19.4333333 9.53333333,21.0833333 C8.70833333,21.9083333 7.33333333,22 6.41666667,21.2666667 L6.41666667,17.6 Z M6.41666667,23.2833333 C7.88333333,23.8333333 9.625,23.4666667 10.8166667,22.275 C11.7333333,21.3583333 13.2916667,21.3583333 14.2083333,22.275 C15.0333333,23.1 16.0416667,23.5583333 17.2333333,23.5583333 C18.425,23.5583333 19.4333333,23.1 20.2583333,22.275 C21.175,21.3583333 22.7333333,21.3583333 23.65,22.275 C24.475,23.1 25.4833333,23.5583333 26.675,23.5583333 C27.8666667,23.5583333 28.875,23.1 29.7,22.275 C30.6166667,21.3583333 32.175,21.3583333 33.0916667,22.275 C34.2833333,23.4666667 36.025,23.8333333 37.4916667,23.2833333 L37.4916667,27.5916667 L6.41666667,27.5916667 L6.41666667,23.2833333 Z M42.1666667,42.1666667 L1.83333333,42.1666667 L1.83333333,36.85 C3.75833333,37.675 6.05,37.3083333 7.60833333,35.75 C8.89166667,34.4666667 11.0916667,34.4666667 12.375,35.75 C13.3833333,36.7583333 14.6666667,37.3083333 16.0416667,37.3083333 C17.325,37.3083333 18.7,36.7583333 19.7083333,35.75 C20.9916667,34.4666667 23.1,34.4666667 24.475,35.75 C26.4916667,37.7666667 29.7916667,37.7666667 31.8083333,35.75 C33.0916667,34.4666667 35.2916667,34.4666667 36.575,35.75 C38.1333333,37.3083333 40.425,37.675 42.35,36.85 L42.35,42.1666667 L42.1666667,42.1666667 Z M42.1666667,34.7416667 C40.8833333,35.8416667 38.9583333,35.75 37.675,34.5583333 C35.6583333,32.5416667 32.3583333,32.5416667 30.3416667,34.5583333 C29.0583333,35.8416667 26.8583333,35.8416667 25.575,34.5583333 C23.5583333,32.5416667 20.2583333,32.5416667 18.2416667,34.5583333 C16.9583333,35.8416667 14.7583333,35.8416667 13.475,34.5583333 C11.4583333,32.5416667 8.15833333,32.5416667 6.14166667,34.5583333 C5.04166667,35.75 3.11666667,35.8416667 1.83333333,34.7416667 L1.83333333,31.2583333 C1.83333333,30.25 2.65833333,29.425 3.66666667,29.425 L40.3333333,29.425 C41.3416667,29.425 42.1666667,30.25 42.1666667,31.2583333 L42.1666667,34.7416667 Z" id="Shape"></path>
                    </g>
                    <g id="noun_1101171_cc" transform="translate(215.000000, 6.000000)" fill-rule="nonzero" fill="#000000">
                        <path d="M0.05,23 L0.05,25.5 C0.05,27.2 0.8,28.7 2,29.75 L2,39 C2,40.95 3.55,42.5 5.5,42.5 L36.5,42.5 C38.45,42.5 40,40.95 40,39 L40,29.75 C41.2,28.75 41.95,27.2 41.95,25.5 L41.95,22.5 C41.95,20.55 40.4,19 38.45,19 L37.5,19 L37.5,15.5 C37.5,14.35 36.85,13.35 35.9,12.85 C36,12.75 36.1,12.65 36.2,12.6 C37.95,10.8 37.95,7.9 36.2,6.1 L34.1,3.9 C33.55,3.3 32.5,3.3 31.95,3.9 L29.85,6.1 C28.1,7.9 28.1,10.8 29.85,12.6 C29.95,12.7 30.05,12.8 30.15,12.85 C29.2,13.35 28.55,14.35 28.55,15.5 L28.55,19 L25.55,19 L25.55,12.5 C25.55,11.35 24.9,10.35 23.95,9.85 C24.05,9.75 24.15,9.65 24.25,9.6 C26,7.8 26,4.9 24.25,3.1 L22.15,0.9 C21.6,0.3 20.55,0.3 20,0.9 L17.9,3.1 C16.15,4.9 16.15,7.8 17.9,9.6 C18,9.7 18.1,9.8 18.2,9.85 C17.25,10.35 16.6,11.35 16.6,12.5 L16.6,19 L13.6,19 L13.6,15.5 C13.6,14.35 12.95,13.35 12,12.85 C12.1,12.75 12.2,12.65 12.3,12.6 C14.05,10.8 14.05,7.9 12.3,6.1 L10.2,3.9 C9.65,3.3 8.6,3.3 8.05,3.9 L5.95,6.1 C4.2,7.9 4.2,10.8 5.95,12.6 C6.05,12.7 6.15,12.8 6.25,12.85 C5.3,13.35 4.65,14.35 4.65,15.5 L4.65,19 L3.7,19 C1.8,19 0.05,20.4 0.05,23 Z M36.5,39.5 L5.5,39.5 C5.2,39.5 5,39.3 5,39 L5,36.5 L37,36.5 L37,39 C37,39.3 36.8,39.5 36.5,39.5 Z M37,33.5 L5,33.5 L5,31 C5.05,31 5.05,31 5.1,31 C5.2,31 5.35,31 5.45,31 C6.85,31 8.1,30.5 9.15,29.55 C9.2,29.5 9.3,29.4 9.35,29.35 C10.35,30.35 11.7,31 13.25,31 C14.8,31 16.15,30.35 17.15,29.35 C18.15,30.35 19.5,31 21.05,31 C22.6,31 23.95,30.35 24.95,29.35 C25.95,30.35 27.3,31 28.85,31 C30.4,31 31.75,30.35 32.75,29.35 C32.8,29.4 32.9,29.5 32.95,29.55 C34.05,30.6 35.5,31.1 37,31 C37.05,31 37.05,31 37.1,31 L37.1,33.5 L37,33.5 Z M31.95,8.2 L33,7.1 L34.05,8.2 C34.65,8.85 34.65,9.85 34.05,10.5 C33.5,11.1 32.55,11.1 31.95,10.5 L31.95,10.5 C31.35,9.9 31.35,8.85 31.95,8.2 Z M31.5,15.55 L34.5,15.55 L34.5,19.05 L31.5,19.05 L31.5,15.55 Z M19.95,5.2 L21,4.1 L22.05,5.2 C22.65,5.85 22.65,6.85 22.05,7.5 C21.5,8.1 20.55,8.1 19.95,7.5 L19.95,7.5 C19.35,6.9 19.35,5.85 19.95,5.2 Z M19.5,12.55 L22.5,12.55 L22.5,19.05 L19.5,19.05 L19.5,12.55 Z M7.95,8.2 L9,7.1 L10.05,8.2 C10.65,8.85 10.65,9.85 10.05,10.5 C9.5,11.1 8.55,11.1 7.95,10.5 L7.95,10.5 C7.35,9.9 7.35,8.85 7.95,8.2 Z M7.5,15.55 L10.5,15.55 L10.5,19.05 L7.5,19.05 L7.5,15.55 Z M3.05,23 C3.05,22.85 3.05,22 3.55,22 L38.45,22 C38.75,22 38.95,22.2 38.95,22.5 L38.95,25.5 C38.95,26.85 37.95,27.95 36.7,28 C36.05,28.05 35.4,27.8 34.9,27.35 C34.4,26.9 34.15,26.25 34.15,25.6 C34.15,24.75 33.5,24.1 32.65,24.1 C31.8,24.1 31.15,24.75 31.15,25.6 C31.15,26.9 30.1,28 28.75,28 C27.4,28 26.35,26.95 26.35,25.6 C26.35,24.75 25.7,24.1 24.85,24.1 C24,24.1 23.35,24.75 23.35,25.6 C23.35,26.9 22.3,28 20.95,28 C19.6,28 18.55,26.95 18.55,25.6 C18.55,24.75 17.9,24.1 17.05,24.1 C16.2,24.1 15.55,24.75 15.55,25.6 C15.55,26.9 14.5,28 13.15,28 C11.8,28 10.75,26.95 10.75,25.6 C10.75,24.75 10.1,24.1 9.25,24.1 C8.4,24.1 7.75,24.75 7.75,25.6 C7.75,26.25 7.5,26.9 7,27.35 C6.5,27.8 5.9,28.05 5.2,28 C3.95,27.9 2.95,26.8 2.95,25.5 L2.95,23 L3.05,23 Z" id="Shape"></path>
                    </g>
                    <g id="noun_1172996_cc" transform="translate(214.000000, 65.000000)" fill-rule="nonzero" fill="#000000">
                        <path d="M0.499726226,43.8073394 C8.43568455,45.7155963 16.9344768,44.7614679 24.9830019,44.7614679 C29.0354061,44.7614679 33.0878104,44.7614679 37.1402146,44.8348624 C41.5866026,44.8348624 45.9767072,44.2477064 50.3668118,43.8807339 C51.2110627,43.8073394 51.2110627,42.1926606 50.3668118,42.1192661 C46.1455574,41.7522936 41.924303,41.0917431 37.7030486,41.1651376 C33.4817941,41.1651376 29.2605397,41.1651376 25.0392853,41.2385321 C17.0470436,41.2385321 8.49196794,40.2844037 0.556009618,42.1926606 C-0.175674482,42.1926606 -0.175674482,43.6605505 0.499726226,43.8073394 L0.499726226,43.8073394 Z" id="Shape"></path>
                        <path d="M3.51099767,42.5739278 C4.79426492,37.2778023 1.83717083,30.5266973 8.53247819,28.19873 C13.2749876,26.569153 19.1891757,27.0347464 24.154862,26.7437505 C26.8887792,26.569153 29.5669022,26.5109538 32.3008193,26.3945554 C35.146325,26.2781571 38.326596,25.8125636 41.0605131,26.7437505 C46.9189071,28.7225227 45.4682571,36.6376113 46.416759,41.7591393 C46.7515244,41.4681434 47.142084,41.1771475 47.4768493,40.8861516 C46.8073186,40.4205581 46.9189071,40.4787573 46.0819936,40.4787573 C45.6914341,40.4787573 45.6356398,41.0607491 45.9704052,41.1771475 C46.0819936,41.2935458 46.2493763,41.4681434 46.3609648,41.5845417 C46.416759,42.5739278 47.7558205,42.5739278 47.8116147,41.5845417 C48.0905859,36.5794121 48.7043224,28.7807219 43.961813,25.6379661 C41.4510727,23.9501898 38.2708017,23.8919906 35.3695019,24.0665882 C31.6870828,24.3575841 27.9488695,24.9395759 24.154862,25.2305718 C20.472443,25.5215677 16.7342297,25.6961653 13.0518107,26.0453603 C10.7642473,26.2781571 8.36509551,26.6273522 6.24491485,27.7331366 C0.944463184,30.5266973 1.94875929,37.2778023 2.33931888,42.3993303 C2.39511311,43.0395213 3.34361499,43.272318 3.51099767,42.5739278 L3.51099767,42.5739278 Z" id="Shape"></path>
                        <path d="M7.00901541,31.8509072 C6.89567169,33.3254051 7.85909336,34.745292 9.44590554,34.9637361 C12.166155,35.3460134 12.166155,32.6154617 13.0729048,31.0317417 C13.5262797,30.2671872 14.0929983,28.9565224 15.3964512,30.5948534 C15.6798105,30.9771307 15.5097949,31.46863 15.906498,31.8509072 C16.303201,32.2331845 16.8132478,32.3970176 17.3799664,32.4516286 C20.2135596,32.6154617 21.2336531,28.1373569 24.18059,29.939521 C25.8807459,30.9771307 26.5608083,33.161572 28.6009954,33.9807375 C30.3011513,34.6360699 31.8879634,34.0353486 33.0214007,32.7792948 C33.8148068,31.9055182 34.2115098,30.8132976 34.948244,29.939521 C36.5917281,27.9735238 38.2352121,30.3217983 39.6520087,31.2501858 C41.4655083,32.3970176 42.9956486,32.2877955 43.9590703,30.4310203 C44.1290859,30.1579652 43.7323829,29.7756879 43.4490236,30.0487431 C42.032227,31.6324631 38.688587,27.4820245 37.2151186,27.0997473 C35.6283064,26.7174701 34.3248536,27.4820245 33.3614319,28.5742452 C32.1146509,29.9941321 31.2079011,33.161572 28.8276828,31.7416851 C27.3542144,30.8679086 26.6174801,29.1203555 25.0873398,28.191968 C23.8972307,27.4820245 22.8204653,27.4820245 21.6303562,28.191968 C20.7802782,28.6834673 20.3835752,29.6118548 19.5901691,30.1579652 C18.5700755,30.9225196 18.5700755,31.6870741 16.5298885,29.6664659 C16.3598729,29.5026328 16.5298885,28.9565224 16.303201,28.7926893 C15.3964512,28.0827459 14.7163888,27.5912466 13.412936,28.0827459 C12.7328736,28.3558011 12.2794987,28.8473004 11.9394675,29.3934107 C11.7127801,29.7756879 11.5427645,30.1579652 11.3727489,30.5402424 C11.316077,30.7586865 11.2027333,30.9771307 11.1460614,31.2501858 C10.919374,32.7246838 9.78593672,32.8885169 7.68907777,31.8509072 C7.68907777,31.4140189 7.06568728,31.4140189 7.00901541,31.8509072 L7.00901541,31.8509072 Z" id="Shape"></path>
                        <path d="M21,13.5975001 C21.0540878,16.8510205 21.1622634,20.5040962 21.9735807,23.643458 C22.1358441,24.2142511 22.8930735,24.0430132 22.9471613,23.5292994 C23.1635126,20.2757789 22.6767223,16.6797826 22.1899319,13.4833415 C22.0276685,12.7413105 21,12.9125484 21,13.5975001 L21,13.5975001 Z" id="Shape"></path>
                        <path d="M23.5829266,13.8865875 C24.9743792,14.1105675 26.5745496,13.9985775 27.7572843,13.5879475 C28.1747201,13.4386275 28.0355748,13.0653275 27.4789938,13.0279975 C26.2266865,12.9906675 24.9743792,12.9906675 23.7916445,13.0279975 C22.8872004,13.0653275 22.6784825,13.7372675 23.5829266,13.8865875 L23.5829266,13.8865875 Z" id="Shape"></path>
                        <path d="M26,13.4561586 C26,15.5527275 26.0459566,17.5910583 26.2297829,19.6876272 C26.3676527,21.1435778 26.3676527,22.8324805 27.2408278,23.8807649 C27.3786976,24.055479 27.7003937,24.055479 27.7923069,23.7642889 C28.2518728,22.3665763 27.8382635,20.9106257 27.6084805,19.4546751 C27.332741,17.4163443 26.9650883,15.3780134 26.6893488,13.3396826 C26.6433922,12.8155404 26,12.9320164 26,13.4561586 L26,13.4561586 Z" id="Shape"></path>
                        <path d="M24.4415258,9.69693243 C22.2924912,10.3969702 22.6282779,7.71349202 23.0312219,6.66343533 C23.4341658,5.43836919 24.1728965,4.3883125 24.5086831,3.10490988 C24.7773125,2.05485319 24.9787845,0.246422226 23.3670085,0.0130762949 C22.0238619,-0.161933153 21.4194459,1.47148836 22.8297499,1.82150726 C22.6954352,1.76317078 21.6880752,4.09663009 21.4194459,4.50498547 C21.1508166,5.03001381 20.8150299,5.49670567 20.5464006,6.02173402 C20.009142,7.24680016 19.7405127,8.58853926 20.3449286,9.87194188 C21.2179739,11.6803728 23.4341658,12.5554201 25.5160431,11.6220364 C26.5905604,11.097008 25.7175151,9.28857705 24.4415258,9.69693243 L24.4415258,9.69693243 Z" id="Shape"></path>
                        <path d="M23.01198,2.48689058 C23.4587201,4.20359749 23.7565469,6.11104962 24.3522004,7.7641748 C24.5011138,8.20924696 24.9974918,7.95492001 24.9974918,7.57342959 C25.0471295,5.66597746 24.3522004,3.75852533 23.6076335,2.23256362 C23.4587201,1.78749146 22.9127044,2.04181841 23.01198,2.48689058 L23.01198,2.48689058 Z" id="Shape"></path>
                        <path d="M25.00264,17.5437095 C25.1788777,19.5094194 25.3551153,21.6653592 25.8838283,23.5676591 C26.0600659,24.2017591 27,24.1383491 27,23.3774291 C26.9412541,21.4117192 26.4125412,19.3191894 26.00132,17.4168895 C25.8838283,16.7827895 24.9438942,16.9096095 25.00264,17.5437095 L25.00264,17.5437095 Z" id="Shape"></path>
                        <path d="M5.55886909,39.503114 C11.5201394,40.1915858 17.5387297,39.926789 23.5,39.926789 C29.4612703,39.926789 35.5371805,40.2445452 41.4411309,39.5560734 C42.1862897,39.4501546 42.1862897,38.5498454 41.4411309,38.4439266 C35.5371805,37.7554548 29.4612703,38.073211 23.5,38.073211 C17.5387297,38.073211 11.4628195,37.8084142 5.55886909,38.496886 C4.8137103,38.496886 4.8137103,39.3971953 5.55886909,39.503114 L5.55886909,39.503114 Z" id="Shape"></path>
                    </g>
                    <g id="noun_1109212_cc" transform="translate(145.000000, 76.000000)" fill-rule="nonzero" fill="#000000">
                        <g id="Group">
                            <path d="M11.437502,0.443009067 C10.643797,0.903011733 10.250002,1.75314773 10.250002,2.59841973 C10.250002,2.98551307 10.284802,3.35122507 10.343752,3.69200907 C9.312502,4.21686507 8.713612,5.2566464 8.593752,6.16444107 C8.532917,6.7052064 8.605252,7.13273173 8.671877,7.5115664 L0.9062525,10.3484995 C0.5249075,10.4901229 0.2506625,10.8875016 0.2500025,11.2994267 L0.2500025,28.5429147 C0.2460025,29.0023093 0.5892725,29.4408293 1.0312525,29.541352 L36.531252,37.6559227 C37.116697,37.789024 37.755087,37.265992 37.750002,36.6574853 L37.750002,15.3567171 C37.751002,15.0079176 37.560252,14.6648941 37.265627,14.4850376 L19.765627,3.83463573 C19.450182,3.65340107 19.208562,3.7060944 18.906252,3.75539307 L18.109377,4.04069707 C17.826387,3.79536907 17.523337,3.58788907 17.203127,3.40675573 C17.234927,3.14972373 17.249977,2.87987307 17.249977,2.59841973 C17.249977,1.75314773 16.856177,0.9030624 16.062477,0.443009067 C15.414617,0.0675032 14.566632,0.172297067 13.749977,0.5381104 C12.868227,0.0667432 12.312492,0.0969050667 11.437502,0.443009067 Z M16.546877,5.37196373 C16.980102,5.68290507 17.350732,6.1070864 17.671877,6.67156373 C17.920627,7.71223173 17.264917,9.2684432 15.953127,9.68283067 C12.954547,10.1406344 11.057172,8.6214552 10.734377,7.68588507 C10.660857,7.09589707 10.550522,6.64754773 10.578127,6.4021184 C10.603777,6.17401707 10.697167,5.96212907 11.109377,5.6255504 C11.797422,6.62864907 12.797622,7.1628784 13.750002,7.1628784 C14.780222,7.1628784 15.861657,6.5402864 16.546877,5.37196373 L16.546877,5.37196373 Z M2.2500025,12.5514608 L35.750002,17.8290933 L35.750002,21.8863787 C24.894677,20.8498907 13.368957,17.6429389 2.2500025,16.5295035 L2.2500025,12.5514608 Z M2.2500025,18.5739947 C13.126277,19.6924107 24.651277,22.8986987 35.750002,23.93088 L35.750002,27.9723067 C24.894677,26.9358187 13.368957,23.728872 2.2500025,22.6154213 L2.2500025,18.5739947 Z M2.2500025,24.6599227 C13.126277,25.7783387 24.651277,28.9846267 35.750002,30.016808 L35.750002,35.389552 L2.2500025,27.7345787 L2.2500025,24.6599227 Z" id="Shape"></path>
                        </g>
                    </g>
                    <g id="noun_1185622_cc" transform="translate(70.000000, 12.000000)" fill-rule="nonzero" fill="#000000">
                        <g id="Group">
                            <path d="M45.9081836,18.5984043 C45.8898204,16.7367021 45.1552894,14.9867021 43.8423154,13.6835106 C43.3924152,13.2367021 42.8966068,12.8643617 42.3548902,12.5571809 C41.8682635,9.17819149 39.7197605,6.07845745 36.2307385,3.7606383 C32.6223553,1.36835106 27.902994,0.0465425532 22.9540918,0.0465425532 C15.6638723,0.0465425532 9.04391218,2.90425532 5.6742515,7.49335106 C5.29780439,8.00531915 5.3988024,8.74069149 5.91297405,9.12234043 C6.41796407,9.50398936 7.14331337,9.40159574 7.51976048,8.88031915 C8.91536926,6.98138298 11.0546906,5.36170213 13.699002,4.20744681 C16.4626747,3.00664894 19.6670659,2.3643617 22.9632735,2.3643617 C27.4714571,2.3643617 31.7500998,3.54654255 34.9912176,5.69680851 C38.1037924,7.76329787 39.9401198,10.4906915 40.160479,13.3949468 C40.1972056,13.8231383 40.4634731,14.2047872 40.8491018,14.3723404 C41.3724551,14.6050532 41.8407186,14.9215426 42.2538922,15.3218085 C43.1261477,16.1968085 43.6219561,17.3603723 43.6311377,18.5984043 C43.6403194,19.8457447 43.1720559,21.018617 42.3181637,21.9029255 C40.5461078,23.7367021 37.6355289,23.7646277 35.8267465,21.9680851 C35.3768463,21.5212766 34.6698603,21.5212766 34.2199601,21.9680851 C33.3568862,22.8244681 32.2183633,23.2992021 31.0063872,23.2992021 C29.7944112,23.2992021 28.6558882,22.8244681 27.7928144,21.9680851 C27.3429142,21.5212766 26.6267465,21.5212766 26.1860279,21.9680851 C25.3229541,22.8244681 24.1844311,23.2992021 22.9724551,23.2992021 C21.760479,23.2992021 20.6219561,22.8244681 19.7588822,21.9680851 C19.308982,21.5212766 18.601996,21.5212766 18.1520958,21.9680851 C17.289022,22.8244681 16.150499,23.2992021 14.938523,23.2992021 C13.7265469,23.2992021 12.588024,22.8244681 11.7249501,21.9680851 C11.2750499,21.5212766 10.5680639,21.5212766 10.1181637,21.9680851 C9.71417166,22.3683511 9.23672655,22.6941489 8.71337325,22.9175532 C6.39041916,23.9321809 3.68183633,22.8430851 2.68103792,20.4787234 C1.68023952,18.1236702 2.75449102,15.3776596 5.08662675,14.3630319 C5.66506986,14.1117021 5.94051896,13.4228723 5.68343313,12.8364362 C5.43552894,12.25 4.75608782,11.9707447 4.17764471,12.231383 C0.688622754,13.7486702 -0.927345309,17.8630319 0.569261477,21.400266 C1.36806387,23.2898936 2.90139721,24.6303191 4.68263473,25.2446809 L5.61916168,33.8922872 C5.68343313,34.4787234 6.17924152,34.9255319 6.75768463,34.9255319 L33.2926148,34.9255319 C33.9261477,34.9255319 34.4403194,34.4042553 34.4403194,33.7619681 C34.4403194,33.1196809 33.9261477,32.5984043 33.2926148,32.5984043 L7.77684631,32.5984043 L7.51976048,30.2712766 L11.4678643,30.2712766 C12.1013972,30.2712766 12.6155689,29.75 12.6155689,29.1077128 C12.6155689,28.4654255 12.1013972,27.9441489 11.4678643,27.9441489 L7.27185629,27.9441489 L7.01477046,25.6170213 C7.87784431,25.5984043 8.75928144,25.4215426 9.60399202,25.0492021 C10.0630739,24.8444149 10.4946108,24.6023936 10.8986028,24.3045213 C12.0646707,25.1515957 13.4602794,25.6170213 14.9201597,25.6170213 C16.3800399,25.6170213 17.7756487,25.1609043 18.9417166,24.3045213 C20.1077844,25.1515957 21.5033932,25.6170213 22.9632735,25.6170213 C24.4231537,25.6170213 25.8187625,25.1609043 26.9848303,24.3045213 C28.1508982,25.1515957 29.546507,25.6170213 31.0063872,25.6170213 C32.4662675,25.6170213 33.8618762,25.1609043 35.0279441,24.3045213 C36.1848303,25.1515957 37.5437126,25.5797872 38.9117764,25.6077128 L38.6546906,27.9441489 L28.6926148,27.9441489 C28.0590818,27.9441489 27.5449102,28.4654255 27.5449102,29.1077128 C27.5449102,29.75 28.0590818,30.2712766 28.6926148,30.2712766 L38.3792415,30.2712766 L38.011976,33.6316489 C37.938523,34.2739362 38.3976048,34.8417553 39.0311377,34.9162234 C39.0770459,34.9255319 39.1137725,34.9255319 39.1596806,34.9255319 C39.7381238,34.9255319 40.2339321,34.4880319 40.2982036,33.8922872 L41.2347305,25.2446809 C42.2263473,24.9095745 43.1536926,24.3324468 43.9341317,23.5226064 C45.2287425,22.2194149 45.9265469,20.4601064 45.9081836,18.5984043 Z" id="Shape"></path>
                            <path d="M23.5233533,9.9787234 C24.0742515,9.65292553 24.2578842,8.94547872 23.9457086,8.38696809 C23.6243513,7.82845745 22.9265469,7.64228723 22.3756487,7.9587766 C20.9892216,8.76861702 19.9884232,10.081117 19.5752495,11.6542553 C19.1620758,13.2273936 19.3732535,14.8656915 20.1720559,16.2712766 C20.6954092,17.1928191 21.457485,17.9654255 22.3664671,18.4960106 C22.5409182,18.5984043 22.7429142,18.6542553 22.9357285,18.6542553 C23.1377246,18.6542553 23.3305389,18.5984043 23.50499,18.4960106 C25.3596806,17.4162234 26.5073852,15.3962766 26.5073852,13.2273936 C26.5073852,12.5851064 25.9932136,12.0638298 25.3596806,12.0638298 C25.3596806,12.0638298 25.3596806,12.0638298 25.3596806,12.0638298 C24.7261477,12.0638298 24.211976,12.5851064 24.211976,13.2273936 C24.211976,14.3257979 23.7345309,15.3590426 22.9265469,16.0664894 C22.6143713,15.7965426 22.3481038,15.4707447 22.1461078,15.1077128 C21.1453094,13.3204787 21.760479,11.0119681 23.5233533,9.9787234 Z" id="Shape"></path>
                            <path d="M30.8502994,14.8843085 C31.7592814,15.4148936 32.7968064,15.7034574 33.8526946,15.7034574 C33.8526946,15.7034574 33.8526946,15.7034574 33.8526946,15.7034574 C34.2658683,15.7034574 34.6423154,15.4800532 34.8443114,15.1263298 C35.6431138,13.7207447 35.8634731,12.0824468 35.4411178,10.5093085 C35.0187625,8.93617021 34.0363273,7.62367021 32.6407186,6.81382979 C31.7317365,6.28324468 30.6942116,5.99468085 29.6383234,5.99468085 C29.6383234,5.99468085 29.6383234,5.99468085 29.6383234,5.99468085 C29.2251497,5.99468085 28.8487026,6.21808511 28.6467066,6.57180851 C27.8479042,7.97739362 27.6275449,9.61569149 28.0499002,11.1888298 C28.4722555,12.7619681 29.4638723,14.0744681 30.8502994,14.8843085 Z M30.354491,8.38696809 C30.758483,8.46143617 31.1532934,8.61037234 31.5113772,8.82446809 C32.3652695,9.32712766 32.9804391,10.1369681 33.237525,11.1050532 C33.4303393,11.8404255 33.4027944,12.6037234 33.1640719,13.3111702 C32.7600798,13.2367021 32.3652695,13.087766 32.0071856,12.8736702 C31.1532934,12.3710106 30.5381238,11.5611702 30.2810379,10.5930851 C30.0790419,9.84840426 30.1065868,9.08510638 30.354491,8.38696809 Z" id="Shape"></path>
                            <path d="M12.0463074,15.7034574 C12.055489,15.7034574 12.055489,15.7034574 12.0463074,15.7034574 C13.6530938,15.7034574 15.1588822,15.0704787 16.2882236,13.9255319 C17.4267465,12.7805851 18.0510978,11.2446809 18.0510978,9.625 C18.0510978,8.55452128 17.7756487,7.50265957 17.2431138,6.58111702 C17.0411178,6.21808511 16.655489,6.00398936 16.251497,6.00398936 C16.251497,6.00398936 16.251497,6.00398936 16.251497,6.00398936 C12.9369261,6.00398936 10.2467066,8.73138298 10.2467066,12.0917553 C10.2467066,13.162234 10.5221557,14.2140957 11.0546906,15.1356383 C11.2658683,15.4800532 11.6423154,15.7034574 12.0463074,15.7034574 Z M15.5536926,8.38696809 C15.6914172,8.77792553 15.7556886,9.19680851 15.7556886,9.61569149 C15.7556886,10.6210106 15.3700599,11.5611702 14.6722555,12.2779255 C14.1397206,12.8178191 13.4786427,13.1715426 12.7532934,13.3111702 C12.6155689,12.9202128 12.5512974,12.5013298 12.5512974,12.0824468 C12.5512974,10.2486702 13.8459082,8.71276596 15.5536926,8.38696809 Z" id="Shape"></path>
                        </g>
                    </g>
                    <g id="noun_1134816_cc" transform="translate(0.000000, 62.000000)" fill-rule="nonzero" fill="#000000">
                        <g id="Group">
                            <path d="M0.180549451,42.1664505 C0.180549451,42.4203846 0.253351648,42.6679121 0.39021978,42.8810769 C0.647648352,43.2823626 6.92145055,52.7087912 26.7894615,52.7087912 C46.706978,52.7087912 52.2894505,43.2217912 52.5165934,42.817011 C52.6284176,42.6184066 52.6884066,42.3941758 52.6884066,42.167033 L52.6884066,28.1814396 C52.6884066,28.0428242 52.6662747,27.9042088 52.6231758,27.7731648 C52.5270769,27.4761319 50.0838352,20.4917802 33.9234945,18.9175055 C33.1844066,18.8447033 32.5472418,19.3793626 32.4767692,20.1073846 C32.4068791,20.8354066 32.9386264,21.4830549 33.6672308,21.5535275 C46.5864176,22.8121319 49.5934396,27.5780549 50.0419011,28.4522637 L50.0419011,31.2775714 C50.0419011,33.6713077 49.628967,36.7185165 47.6615604,37.6503846 C47.0552637,37.9392637 44.9550659,38.6882527 43.261978,36.3824615 C42.9428132,35.9485604 42.3912637,35.7505385 41.8670879,35.8850769 C41.3434945,36.0184505 40.9544396,36.4558462 40.8828022,36.9910879 C40.5723736,39.2846484 39.4995604,40.8233956 38.0114835,41.1047033 C36.5455385,41.3731978 34.9421429,40.3953187 33.9392198,38.5904066 C33.668978,38.1035055 33.1238352,37.8361758 32.5711209,37.9247033 C32.0207363,38.0132308 31.5850879,38.4372308 31.4808352,38.9835385 C31.4511319,39.1361319 30.7295165,42.7244066 27.4266264,42.7244066 C23.9303736,42.7244066 23.1994396,39.6486593 23.1307143,39.3056154 C23.0322857,38.7907582 22.6385714,38.3853956 22.1295385,38.2665824 C21.6205055,38.1495165 21.0852637,38.3422967 20.7695934,38.7604725 C20.748044,38.7878462 18.6262967,41.5525824 16.0164835,41.1344066 C11.9337363,40.4751099 11.738044,36.7493846 11.7298901,36.3347033 C11.7252308,35.7755824 11.3705385,35.2805275 10.844033,35.0953187 C10.3146154,34.913022 9.73045055,35.0766813 9.37808791,35.5105824 C8.61046154,36.4546813 7.12587912,37.9876044 5.85912088,37.5991319 C4.4089011,37.1634835 3.16602198,34.5292088 2.8288022,31.1884615 L2.8288022,28.461 C3.339,27.4877802 6.81661538,22.2250549 22.3951209,21.3665714 L22.3951209,27.5704835 C22.3951209,28.3008352 22.9874396,28.8931538 23.718956,28.8931538 C24.4493077,28.8931538 25.0416264,28.3002527 25.0416264,27.5704835 L25.0416264,15.4340659 L27.8238352,15.4340659 L27.8238352,27.5699011 C27.8238352,28.3002527 28.4167363,28.8925714 29.1482527,28.8925714 C29.878022,28.8925714 30.4709231,28.2996703 30.4709231,27.5699011 L30.4709231,14.1102308 C30.4709231,13.3798791 29.878022,12.7858132 29.1482527,12.7858132 L23.7183736,12.7858132 C22.9868571,12.7858132 22.3945385,13.3798791 22.3945385,14.1102308 L22.3945385,18.7177363 C3.07924176,19.7491978 0.352945055,27.4411868 0.245197802,27.7731648 C0.202098901,27.905956 0.180549451,28.0428242 0.180549451,28.1814396 L0.180549451,42.1664505 Z M5.09673626,40.134978 C6.19226374,40.464044 7.7711978,40.4500659 9.61920879,39.0033407 C10.4008132,41.0284066 12.1538901,43.1926703 15.5919011,43.7494615 C18.0333956,44.1356044 20.0532198,42.9911538 21.3461868,41.9235824 C22.338044,43.6335604 24.2367253,45.3720769 27.4266264,45.3720769 C30.3497802,45.3720769 32.164011,43.6527802 33.1622747,41.9031978 C34.6788901,43.3743846 36.6136813,44.0633846 38.5042088,43.7051978 C40.5152967,43.3272088 42.0767582,41.8752418 42.9206813,39.6870989 C44.9306044,41.0091868 47.2014505,40.7995165 48.7949451,40.0441209 C49.2032198,39.8513407 49.6266374,39.5816813 50.0419011,39.2194176 L50.0419011,41.7750659 C49.0331538,43.2072308 43.3406044,50.0617033 26.790044,50.0617033 C10.3897473,50.0617033 4.01285714,43.2072308 2.82996703,41.7302198 L2.82996703,38.6003077 C3.49450549,39.3527912 4.25863736,39.8833736 5.09673626,40.134978 Z" id="Shape"></path>
                            <path d="M6.55510989,29.601956 C5.92435165,29.230956 5.11362637,29.4394615 4.73971429,30.0702198 C4.36871429,30.7003956 4.57838462,31.5122857 5.20797802,31.8844505 C8.97097802,34.1046264 15.7625495,36.7511319 26.7411209,36.7511319 C37.5647692,36.7511319 44.0977473,34.1704396 47.6732088,32.0067582 C48.2987253,31.6281868 48.4979121,30.8133846 48.1205055,30.1884505 C47.7419341,29.5623516 46.925967,29.3637473 46.3016154,29.739989 C43.0138681,31.7318571 36.9526484,34.1034615 26.7411209,34.1034615 C16.3595275,34.1046264 10.0333077,31.6561429 6.55510989,29.601956 Z" id="Shape"></path>
                            <path d="M23.7935055,3.14971429 C22.4947143,4.58653846 21.8907473,6.36815385 22.1796264,7.91505495 C22.3473626,8.81430769 22.8936703,10.0606813 24.5430769,10.892956 C25.1953846,11.222022 25.9158352,11.3862637 26.6316264,11.3862637 C27.3922637,11.3862637 28.1459121,11.2016374 28.806956,10.8352967 C29.984022,10.1835714 30.7324286,9.02164835 30.8588132,7.64947253 C30.9607363,6.54695604 30.4814066,5.52423077 29.5751648,4.91385714 C28.6706703,4.30581319 27.500011,4.24232967 26.5145604,4.75136264 C25.864,5.08625275 25.6106484,5.88532967 25.9455385,6.53589011 C26.281011,7.1847033 27.0806703,7.43747253 27.7300659,7.10374725 C27.9042088,7.01405495 28.0335055,7.06763736 28.0964066,7.11131868 C28.1913407,7.1748022 28.2344396,7.27381319 28.221044,7.4066044 C28.1756154,7.91447253 27.9409011,8.28954945 27.5244725,8.51902198 C26.9997143,8.80906593 26.2990659,8.81081319 25.7352857,8.52834066 C25.1796593,8.2481978 24.8686484,7.88884615 24.7818681,7.43048352 C24.6479121,6.71236264 25.0311429,5.72924176 25.7562527,4.92667033 C25.9315604,4.73389011 26.0963846,4.56731868 26.2472308,4.41763736 C26.949044,3.71116484 27.8226703,2.83346154 27.394011,1.14910989 C27.2128791,0.440307692 26.4906813,0.0128131868 25.7842088,0.19278022 C25.0754066,0.37332967 24.6479121,1.09378022 24.8272967,1.80316484 C24.8634066,1.94061538 24.5605495,2.35762637 24.3700989,2.55040659 C24.1936264,2.72746154 23.9985165,2.92373626 23.7935055,3.14971429 Z" id="Shape"></path>
                        </g>
                    </g>
                </g>
            </g>
        </g>
    </g>
</svg>