<?xml version="1.0" encoding="UTF-8"?>
<svg width="77px" height="77px" viewBox="0 0 77 77" version="1.1" xmlns="http://www.w3.org/2000/svg" xmlns:xlink="http://www.w3.org/1999/xlink">
    <!-- Generator: Sketch 47 (45396) - http://www.bohemiancoding.com/sketch -->
    <title>venda</title>
    <desc>Created with Sketch.</desc>
    <defs></defs>
    <g id="Home" stroke="none" stroke-width="1" fill="none" fill-rule="evenodd">
        <g id="Guia-" transform="translate(-726.000000, -689.000000)" fill-rule="nonzero" fill="#F2361F">
            <g id="venda" transform="translate(726.000000, 689.000000)">
                <path d="M38.2357076,0 C17.1542676,0 0,17.1542502 0,38.2357076 C0,59.317113 17.1542676,76.4714153 38.2357076,76.4714153 C52.0081755,76.4714153 64.2638776,69.2291978 70.9897879,58.2626432 C71.4672032,57.4822332 71.2003059,56.3248174 70.4199158,55.8474708 C69.6395257,55.3700373 68.4821586,55.6640696 68.0047433,56.4444797 C61.905273,66.3896497 50.7923978,72.9436353 38.2357076,72.9436353 C19.0314894,72.9436353 3.52777998,57.4399432 3.52777998,38.2357076 C3.52777998,19.0314721 19.0314894,3.52777998 38.2357076,3.52777998 C50.6339808,3.52777998 61.5012234,10.003346 67.6519653,19.7555679 L59.5652082,17.4489425 C58.9689304,17.2743258 58.3247904,17.4311175 57.8754716,17.8602455 C57.4261528,18.2893734 57.2399315,18.9256294 57.3869677,19.5293002 C57.534004,20.1329711 57.9919547,20.612326 58.5882845,20.7867651 L70.745557,24.2602716 C71.1918302,24.3940494 71.673138,24.3429361 72.0813608,24.1184135 C72.4895836,23.893891 72.7904948,23.5147839 72.9164985,23.0662537 L76.390005,10.9089812 C76.5620507,10.3423229 76.4335317,9.72705574 76.0490382,9.27664911 C75.6645448,8.82624248 75.0770665,8.60276993 74.4904312,8.68376611 C73.7876532,8.77046114 73.2078608,9.27509519 73.0250456,9.95919426 L70.7184202,18.0459514 C63.9604651,7.22278672 51.9112968,0 38.2357076,0 Z M38.0457503,21.7094153 C37.1509817,21.8077415 36.4795944,22.5733586 36.4989544,23.4733053 L36.4989544,24.4773657 C34.8847734,24.7443177 33.4078446,25.3955064 32.2113449,26.4040763 C30.598232,27.7638238 29.5519415,29.8355099 29.5519415,32.1570714 C29.5519415,35.5373055 31.9270245,37.6743456 33.9752349,38.6970327 C34.8930421,39.1553402 35.7771945,39.4572209 36.4989544,39.6468196 L36.4989544,48.4391328 C34.2012221,47.8829515 32.4013023,46.4581487 32.4013023,46.4581487 C31.9320476,46.0148895 31.2556849,45.8684207 30.6450915,46.0778348 C30.0344981,46.2872489 29.5904002,46.818 29.4919684,47.4559575 C29.3935366,48.093915 29.6570087,48.7338385 30.1760872,49.1175521 C30.1760872,49.1175521 32.7671285,51.4311765 36.4989544,52.0211863 L36.4989544,52.99811 C36.4901077,53.6244383 36.8191825,54.2070126 37.3601723,54.5227584 C37.901162,54.8385042 38.5702533,54.8385042 39.111243,54.5227584 C39.6522328,54.2070126 39.9813076,53.6244383 39.9724609,52.99811 L39.9724609,51.9940496 C41.586641,51.7193881 43.0635699,51.04874 44.2600704,50.0402022 C45.873185,48.6804113 46.9194738,46.6359488 46.9194738,44.3143439 C46.9194738,40.9341011 44.5443908,38.7700198 42.4961804,37.7472458 C41.5789915,37.2892475 40.6939837,37.0141935 39.9724609,36.8245957 L39.9724609,28.0594192 C42.2701932,28.6156119 44.070113,30.0132666 44.070113,30.0132666 C44.5393677,30.4565258 45.2157304,30.6029946 45.8263238,30.3935805 C46.4369172,30.1841664 46.8810151,29.6534153 46.9794469,29.0154578 C47.0778786,28.3775003 46.8144066,27.7375768 46.2953281,27.3538632 C46.2953281,27.3538632 43.7042868,25.0673668 39.9724609,24.4773657 L39.9724609,23.4733053 C39.9832355,22.9731269 39.7778136,22.4925925 39.4088039,22.1547667 C39.0397942,21.8169409 38.5430365,21.6546349 38.0457503,21.7094153 Z M36.4989544,28.0322825 L36.4989544,35.9833558 C36.1918808,35.8710026 35.8680814,35.7355567 35.5491675,35.5763043 C34.1238966,34.8646002 33.025448,33.9962322 33.025448,32.1570714 C33.025448,30.8420626 33.5497191,29.8339034 34.4636967,29.0634797 C35.0101792,28.6028302 35.7009667,28.2441394 36.4989544,28.0322825 Z M39.9724609,40.4880595 C40.2792783,40.600338 40.6036274,40.7088877 40.9222478,40.8679742 C42.3475187,41.5796957 43.4459673,42.4752091 43.4459673,44.3143439 C43.4459673,45.6293266 42.9216954,46.6104619 42.0077186,47.3807988 C41.4616894,47.8410662 40.7696219,48.2194014 39.9724609,48.4391328 L39.9724609,40.4880595 Z" id="Shape"></path>
            </g>
        </g>
    </g>
</svg>